Chapter 11 Merging with dplyr | STAT 234: Data Science
…
Why are births missing in head(combined_left) but not in tail(combined_left)?

11.2.2 Keep All Rows of Data Set 2 with right_join()

Recall from the accompanying handout that there is no need to ever use right_join() because it is the same as using a left_join() with the first two data set arguments switched:

## these will always do the same exact thing
right_join(babynames_df, birth_df, by = c("year" = "year"))

## # A tibble: 1,839,952 x 6
##     year sex   name          n   prop  births
##    <dbl> <chr> <chr>     <int>  <dbl>   <int>
##  1  1909 F     Mary      19259 0.0523 2718000
##  2  1909 F     Helen      9250 0.0251 2718000
##  3  1909 F     Margaret   7359 0.0200 2718000
##  4  1909 F     Ruth       6509 0.0177 2718000
##  5  1909 F     Dorothy    6253 0.0170 2718000
##  6  1909 F     Anna       5804 0.0158 2718000
##  7  1909 F     Elizabeth  5176 0.0141 2718000
##  8  1909 F     Mildred    5054 0.0137 2718000
##  9  1909 F     Marie      4301 0.0117 2718000
## 10  1909 F     Alice      4170 0.0113 2718000
## # … with 1,839,942 more rows

left_join(birth_df, babynames_df, by = c("year" = "year"))

## # A tibble: 1,839,952 x 6
##     year  births sex   name          n   prop
##    <dbl>   <int> <chr> <chr>     <int>  <dbl>
##  1  1909 2718000 F     Mary      19259 0.0523
##  2  1909 2718000 F     Helen      9250 0.0251
##  3  1909 2718000 F     Margaret   7359 0.0200
##  4  1909 2718000 F     Ruth       6509 0.0177
##  5  1909 2718000 F     Dorothy    6253 0.0170
##  6  1909 2718000 F     Anna       5804 0.0158
##  7  1909 2718000 F     Elizabeth  5176 0.0141
##  8  1909 2718000 F     Mildred    5054 0.0137
##  9  1909 2718000 F     Marie      4301 0.0117
## 10  1909 2718000 F     Alice      4170 0.0113
## # … with 1,839,942 more rows
Therefore, it’s usually easier to just always use left_join() and ignore right_join() completely.

11.2.3 Keep All Rows of Both Data Sets with full_join()

A full_join() will keep all rows in data set 1 that don’t have a matching key in data set 2, and will also keep all rows in data set 2 that don’t have a matching key in data set 1, filling in NA for missing values when necessary. For our example of merging babynames_df with birth_df,

full_join(babynames_df, birth_df, by = c("year" = "year"))

11.2.4 Keep Only Rows with Matching Keys with inner_join()

We can also keep only rows with matching keys with inner_join(). For this join, any row in data set 1 without a matching key in data set 2 is dropped, and any row in data set 2 without a matching key in data set 1 is also dropped.

inner_join(babynames_df, birth_df, by = c("year" = "year"))

## # A tibble: 1,839,952 x 6
##     year sex   name          n   prop  births
##    <dbl> <chr> <chr>     <int>  <dbl>   <int>
##  1  1909 F     Mary      19259 0.0523 2718000
##  2  1909 F     Helen      9250 0.0251 2718000
##  3  1909 F     Margaret   7359 0.0200 2718000
##  4  1909 F     Ruth       6509 0.0177 2718000
##  5  1909 F     Dorothy    6253 0.0170 2718000
##  6  1909 F     Anna       5804 0.0158 2718000
##  7  1909 F     Elizabeth  5176 0.0141 2718000
##  8  1909 F     Mildred    5054 0.0137 2718000
##  9  1909 F     Marie      4301 0.0117 2718000
## 10  1909 F     Alice      4170 0.0113 2718000
## # … with 1,839,942 more rows
…
The most logical key for joining these two data sets is Major, but joining the data sets won’t actually work. The following is an attempt at using Major as the key.

left_join(slumajors_df, collegemajors_df, by = c("Major" = "Major"))

## # A tibble: 27 x 14
##    Major     nfemales nmales Total   Men Women Major_category Employed Full_time
##    <chr>        <dbl>  <dbl> <dbl> <dbl> <dbl> <chr>             <dbl>     <dbl>
##  1 Anthropo…       34     15    NA    NA    NA <NA>                 NA        NA
##  2 Art & Ar…       65     11    NA    NA    NA <NA>                 NA        NA
##  3 Biochemi…       14     11    NA    NA    NA <NA>                 NA        NA
##  4 Biology        162     67    NA    NA    NA <NA>                 NA        NA
##  5 Business…      135    251    NA    NA    NA <NA>                 NA        NA
##  6 Chemistry       26     14    NA    NA    NA <NA>                 NA        NA
##  7 Computer…       21     47    NA    NA    NA <NA>                 NA        NA
##  8 Conserva…       38     20    NA    NA    NA <NA>                 NA        NA
##  9 Economics      128    349    NA    NA    NA <NA>                 NA        NA
## 10 English        131     54    NA    NA    NA <NA>                 NA        NA
## # … with 17 more rows, and 5 more variables: Part_time <dbl>, Unemployed <dbl>,
## #   Median <dbl>, P25th <dbl>, P75th <dbl>

Why did the collegemajors_df give only NA values when we tried to merge by major?

This example underscores the importance of having a key that matches exactly. Some, but not all, of the issues involved in joining these two data sets can be solved with functions in the stringr package (discussed in a few weeks). For example, the capitalization issue can be solved with the str_to_title() function, which converts that all-caps majors in collegemajors_df to majors where only the first letter of each word is capitalized:

collegemajors_df <- collegemajors_df %>%
  mutate(Major = str_to_title(Major))
left_join(slumajors_df, collegemajors_df)

## Joining, by = "Major"

## # A tibble: 27 x 14
##    Major  nfemales nmales  Total    Men  Women Major_category Employed Full_time
##    <chr>     <dbl>  <dbl>  <dbl>  <dbl>  <dbl> <chr>             <dbl>     <dbl>
##  1 Anthr…       34     15     NA     NA     NA <NA>                 NA        NA
##  2 Art &…       65     11     NA     NA     NA <NA>                 NA        NA
##  3 Bioch…       14     11     NA     NA     NA <NA>                 NA        NA
##  4 Biolo…      162     67 280709 111762 168947 Biology & Lif…   182295    144512
##  5 Busin…      135    251     NA     NA     NA <NA>                 NA        NA
##  6 Chemi…       26     14  66530  32923  33607 Physical Scie…    48535     39509
##  7 Compu…       21     47 128319  99743  28576 Computers & M…   102087     91485
##  8 Conse…       38     20     NA     NA     NA <NA>                 NA        NA
##  9 Econo…      128    349 139247  89749  49498 Social Science   104117     96567
## 10 Engli…      131     54     NA     NA     NA <NA>                 NA        NA
## # … with 17 more rows, and 5 more variables: Part_time <dbl>, Unemployed <dbl>,
## #   Median <dbl>, P25th <dbl>, P75th <dbl>

As we can see, this solves the issue for some majors but others still have different naming conventions in the two data sets.

11.2.7 Exercises

Exercises marked with an * indicate that the exercise has a solution at the end of the chapter at 11.6.

Examine the following two joins that we’ve done, and explain why one resulting data set has fewer observations (rows) than the other.

left_join(babynames_df, birth_df, by = c("year" = "year"))

## # A tibble: 1,924,665 x 6
##     year sex   name          n   prop births
##    <dbl> <chr> <chr>     <int>  <dbl>  <int>
##  1  1880 F     Mary       7065 0.0724     NA
##  2  1880 F     Anna       2604 0.0267     NA
##  3  1880 F     Emma       2003 0.0205     NA
##  4  1880 F     Elizabeth  1939 0.0199     NA
##  5  1880 F     Minnie     1746 0.0179     NA
##  6  1880 F     Margaret   1578 0.0162     NA
##  7  1880 F     Ida        1472 0.0151     NA
##  8  1880 F     Alice      1414 0.0145     NA
##  9  1880 F     Bertha     1320 0.0135     NA
## 10  1880 F     Sarah      1288 0.0132     NA
## # … with 1,924,655 more rows

left_join(birth_df, babynames_df, by = c("year" = "year"))

## # A tibble: 1,839,952 x 6
##     year  births sex   name          n   prop
##    <dbl>   <int> <chr> <chr>     <int>  <dbl>
##  1  1909 2718000 F     Mary      19259 0.0523
##  2  1909 2718000 F     Helen      9250 0.0251
##  3  1909 2718000 F     Margaret   7359 0.0200
##  4  1909 2718000 F     Ruth       6509 0.0177
##  5  1909 2718000 F     Dorothy    6253 0.0170
##  6  1909 2718000 F     Anna       5804 0.0158
##  7  1909 2718000 F     Elizabeth  5176 0.0141
##  8  1909 2718000 F     Mildred    5054 0.0137
##  9  1909 2718000 F     Marie      4301 0.0117
## 10  1909 2718000 F     Alice      4170 0.0113
## # … with 1,839,942 more rows
Evaluate whether the following statement is true or false: an inner_join() will always result in a data set with the same or fewer rows than a full_join().

Evaluate whether the following statement is true or false: an inner_join() will always result in a data set with the same or fewer rows than a left_join().

11.3 Filtering Joins

Filtering joins (semi_join() and anti_join()) are useful if you would only like to keep the variables in one data set, but you want to filter out observations by a variable in the second data set.

Consider again the two data sets on men’s tennis matches in 2018 and in 2019.

atp_2019 <- read_csv("data/atp_matches_2019.csv")
atp_2018 <- read_csv("data/atp_matches_2018.csv")
atp_2019

## # A tibble: 2,781 x 49
##    tourney_id tourney_name surface draw_size tourney_level tourney_date
##    <chr>      <chr>        <chr>       <dbl> <chr>                <dbl>
##  1 2019-M020  Brisbane     Hard           32 A                 20181231
##  2 2019-M020  Brisbane     Hard           32 A                 20181231
##  3 2019-M020  Brisbane     Hard           32 A                 20181231
##  4 2019-M020  Brisbane     Hard           32 A                 20181231
##  5 2019-M020  Brisbane     Hard           32 A                 20181231
##  6 2019-M020  Brisbane     Hard           32 A                 20181231
##  7 2019-M020  Brisbane     Hard           32 A                 20181231
##  8 2019-M020  Brisbane     Hard           32 A                 20181231
##  9 2019-M020  Brisbane     Hard           32 A                 20181231
## 10 2019-M020  Brisbane     Hard           32 A                 20181231
## # … with 2,771 more rows, and 43 more variables: match_num <dbl>,
## #   winner_id <dbl>, winner_seed <chr>, winner_entry <chr>, winner_name <chr>,
## #   winner_hand <chr>, winner_ht <dbl>, winner_ioc <chr>, winner_age <dbl>,
## #   loser_id <dbl>, loser_seed <chr>, loser_entry <chr>, loser_name <chr>,
## #   loser_hand <chr>, loser_ht <dbl>, loser_ioc <chr>, loser_age <dbl>,
## #   score <chr>, best_of <dbl>, round <chr>, minutes <dbl>, w_ace <dbl>,
## #   w_df <dbl>, w_svpt <dbl>, w_1stIn <dbl>, w_1stWon <dbl>, w_2ndWon <dbl>,
## #   w_SvGms <dbl>, w_bpSaved <dbl>, w_bpFaced <dbl>, l_ace <dbl>, l_df <dbl>,
## #   l_svpt <dbl>, l_1stIn <dbl>, l_1stWon <dbl>, l_2ndWon <dbl>, l_SvGms <dbl>,
## #   l_bpSaved <dbl>, l_bpFaced <dbl>, winner_rank <dbl>,
## #   winner_rank_points <dbl>, loser_rank <dbl>, loser_rank_points <dbl>

atp_2018

## # A tibble: 2,889 x 49
##    tourney_id tourney_name surface draw_size tourney_level tourney_date
##    <chr>      <chr>        <chr>       <dbl> <chr>                <dbl>
##  1 2018-M020  Brisbane     Hard           32 A                 20180101
##  2 2018-M020  Brisbane     Hard           32 A                 20180101
##  3 2018-M020  Brisbane     Hard           32 A                 20180101
##  4 2018-M020  Brisbane     Hard           32 A                 20180101
##  5 2018-M020  Brisbane     Hard           32 A                 20180101
##  6 2018-M020  Brisbane     Hard           32 A                 20180101
##  7 2018-M020  Brisbane     Hard           32 A                 20180101
##  8 2018-M020  Brisbane     Hard           32 A                 20180101
##  9 2018-M020  Brisbane     Hard           32 A                 20180101
## 10 2018-M020  Brisbane     Hard           32 A                 20180101
## # … with 2,879 more rows, and 43 more variables: match_num <dbl>,
## #   winner_id <dbl>, winner_seed <dbl>, winner_entry <chr>, winner_name <chr>,
## #   winner_hand <chr>, winner_ht <dbl>, winner_ioc <chr>, winner_age <dbl>,
## #   loser_id <dbl>, loser_seed <dbl>, loser_entry <chr>, loser_name <chr>,
## #   loser_hand <chr>, loser_ht <dbl>, loser_ioc <chr>, loser_age <dbl>,
## #   score <chr>, best_of <dbl>, round <chr>, minutes <dbl>, w_ace <dbl>,
## #   w_df <dbl>, w_svpt <dbl>, w_1stIn <dbl>, w_1stWon <dbl>, w_2ndWon <dbl>,
## #   w_SvGms <dbl>, w_bpSaved <dbl>, w_bpFaced <dbl>, l_ace <dbl>, l_df <dbl>,
## #   l_svpt <dbl>, l_1stIn <dbl>, l_1stWon <dbl>, l_2ndWon <dbl>, l_SvGms <dbl>,
## #   l_bpSaved <dbl>, l_bpFaced <dbl>, winner_rank <dbl>,
## #   winner_rank_points <dbl>, loser_rank <dbl>, loser_rank_points <dbl>

11.3.0.0.1 Filtering with semi_join()

Suppose that we only want to keep matches in 2019 where the winning player had 10 or more wins in 2018. This might be useful if we want to not consider players in 2018 that only played in a couple of matches, perhaps because they got injured or perhaps because they received a special wildcard into the draw of only one event.

To accomplish this, we can first create a data set that has the names of all of the players that won 10 or more matches in 2018, using functions that we learned from dplyr earlier in the semester:

win10 <- atp_2018 %>% group_by(winner_name) %>%
  summarise(nwin = n()) %>% 
  filter(nwin >= 10)
win10

## # A tibble: 93 x 2
##    winner_name       nwin
##    <chr>            <int>
##  1 Adrian Mannarino    26
##  2 Albert Ramos        21
##  3 Alex De Minaur      29
##  4 Alexander Zverev    58
##  5 Aljaz Bedene        19
##  6 Andreas Seppi       24
##  7 Andrey Rublev       20
##  8 Benoit Paire        27
##  9 Borna Coric         40
## 10 Cameron Norrie      19
## # … with 83 more rows
…
11.3.1 Filtering with anti_join()

Now suppose that we want to only keep the matches in 2019 where the winning player did not have any wins in 2018. We might think of these players as “emerging players” in 2019, players who are coming back from an injury, etc.. To do this, we can use anti_join(), which only keeps the rows in the first data set that do not have a match in the second data set.

new_winners <- anti_join(atp_2019, atp_2018,
                         by = c("winner_name" = "winner_name")) 
new_winners$winner_name

We can then examine how many wins each of these “new” (or perhaps previously injured) players had in 2019:

new_winners %>% group_by(winner_name) %>%
  summarise(nwin = n()) %>%
  arrange(desc(nwin))

## # A tibble: 59 x 2
##    winner_name           nwin
##    <chr>                <int>
##  1 Christian Garin         32
##  2 Juan Ignacio Londero    22
##  3 Miomir Kecmanovic       22
##  4 Hugo Dellien            12
##  5 Attila Balazs            7
##  6 Cedrik Marcel Stebe      7
##  7 Janko Tipsarevic         7
##  8 Jannik Sinner            7
##  9 Soon Woo Kwon            7
## 10 Gregoire Barrere         6
## # … with 49 more rows
…
## Error in list2(...): object 'test2' not found

test3 <- tibble(state = "Washington D.C.", mortality_rate = "16.7",
       ownership_rate = "0.087", region = "NE")
bind_rows(mortality_df, test3)

## Error: Can't combine `mortality_rate` <double> and `mortality_rate` <character>.

Examine the following data sets that are in R’s base library on demographic statistics about the U.S. states and state abbreviations:

df1 <- as_tibble(state.x77)
df2 <- as_tibble(state.abb)
df1

## # A tibble: 50 x 8
##    Population Income Illiteracy `Life Exp` Murder `HS Grad` Frost   Area
##         <dbl>  <dbl>      <dbl>      <dbl>  <dbl>     <dbl> <dbl>  <dbl>
##  1       3615   3624        2.1       69.0   15.1      41.3    20  50708
##  2        365   6315        1.5       69.3   11.3      66.7   152 566432
##  3       2212   4530        1.8       70.6    7.8      58.1    15 113417
##  4       2110   3378        1.9       70.7   10.1      39.9    65  51945
##  5      21198   5114        1.1       71.7   10.3      62.6    20 156361
##  6       2541   4884        0.7       72.1    6.8      63.9   166 103766
##  7       3100   5348        1.1       72.5    3.1      56     139   4862
##  8        579   4809        0.9       70.1    6.2      54.6   103   1982
##  9       8277   4815        1.3       70.7   10.7      52.6    11  54090
## 10       4931   4091        2         68.5   13.9      40.6    60  58073
## # … with 40 more rows

df2

## # A tibble: 50 x 1
##    value
##    <chr>
##  1 AL   
##  2 AK   
##  3 AZ   
##  4 AR   
##  5 CA   
##  6 CO   
##  7 CT   
##  8 DE   
##  9 FL   
## 10 GA   
## # … with 40 more rows
…
dc_df <- tibble(state = "Washington D.C.", mortality_rate = 16.7,
       ownership_rate = 0.087, region = "NE")
all_df <- bind_rows(mortality_df, dc_df)

* Combine the columns of the states data set you made in Section A Exercise 3 with the mortality data set without Washington D.C.

bind_cols(mortality_df, states_df)

* Use a join function to combine the mortality data set with D.C. with the states data set from Exercise 3. For this exercise, keep the row with Washington D.C., having it take on NA values for any variable not observed in the states data.

left_join(all_df, states_df, by = c("state" = "value"))

## # A tibble: 51 x 12
##    state mortality_rate ownership_rate region Population Income Illiteracy
##    <chr>          <dbl>          <dbl> <chr>       <dbl>  <dbl>      <dbl>
##  1 AL              16.7          0.489 South        3615   3624        2.1
##  2 AK              18.8          0.617 West          365   6315        1.5
##  3 AZ              13.4          0.323 West         2212   4530        1.8
##  4 AR              16.4          0.579 South        2110   3378        1.9
##  5 CA               7.4          0.201 West        21198   5114        1.1
##  6 CO              12.1          0.343 West         2541   4884        0.7
##  7 CT               4.9          0.166 NE           3100   5348        1.1
##  8 DE              11.1          0.052 NE            579   4809        0.9
##  9 FL              11.5          0.325 South        8277   4815        1.3
## 10 GA              13.7          0.316 South        4931   4091        2  
## # … with 41 more rows, and 5 more variables: Life Exp <dbl>, Murder <dbl>,
## #   HS Grad <dbl>, Frost <dbl>, Area <dbl>

## or
full_join(all_df, states_df, by = c("state" = "value"))

## # A tibble: 51 x 12
##    state mortality_rate ownership_rate region Population Income Illiteracy
##    <chr>          <dbl>          <dbl> <chr>       <dbl>  <dbl>      <dbl>
##  1 AL              16.7          0.489 South        3615   3624        2.1
##  2 AK              18.8          0.617 West          365   6315        1.5
##  3 AZ              13.4          0.323 West         2212   4530        1.8
##  4 AR              16.4          0.579 South        2110   3378        1.9
##  5 CA               7.4          0.201 West        21198   5114        1.1
##  6 CO              12.1          0.343 West         2541   4884        0.7
##  7 CT               4.9          0.166 NE           3100   5348        1.1
##  8 DE              11.1          0.052 NE            579   4809        0.9
##  9 FL              11.5          0.325 South        8277   4815        1.3
## 10 GA              13.7          0.316 South        4931   4091        2  
## # … with 41 more rows, and 5 more variables: Life Exp <dbl>, Murder <dbl>,
## #   HS Grad <dbl>, Frost <dbl>, Area <dbl>
…
