Chapter 7 R Basics | STAT 234: Data Science
…
2 %in% c(1, 2, 3, 4)

## [1] TRUE

2 %in% c(3, 4, 5, 6)

## [1] FALSE

fitness_df %>%
  mutate(weekend_ind = case_when(weekday %in% vecweekend ~ "weekend",
                                 weekday %in% vecweekday ~ "weekday")) %>%
  select(weekend_ind, everything())

## # A tibble: 584 x 10
##    weekend_ind Start month weekday dayofyear distance  steps flights active_cals
##    <chr>       <chr> <dbl>   <dbl>     <dbl>    <dbl>  <dbl>   <dbl>       <dbl>
##  1 weekday     11/2…    11       4       332    0.930  1885.       0        57.8
##  2 weekday     11/2…    11       5       333    4.64   8953.      18       509. 
##  3 weekday     11/3…    11       6       334    6.05  11665       12       599. 
##  4 weekend     12/1…    12       7       335    6.80  12117        6       661. 
##  5 weekend     12/2…    12       1       336    4.61   8925.       1       527. 
##  6 weekday     12/3…    12       2       337    3.96   7205        2       550. 
##  7 weekday     12/4…    12       3       338    6.60  12483.       5       670. 
##  8 weekday     12/5…    12       4       339    4.91   9258.       6       557. 
##  9 weekday     12/6…    12       5       340    7.50  14208       13       997. 
## 10 weekday     12/7…    12       6       341    4.27   8269.       8       533. 
## # … with 574 more rows, and 1 more variable: weekday_cat <fct>

## can also use if_else, which is actually a little simpler in this case:
fitness_df %>% mutate(weekend_ind = if_else(weekday %in% vecweekend,
  true = "weekend", false = "weekday")) %>%
  select(weekend_ind, everything())

## # A tibble: 584 x 10
##    weekend_ind Start month weekday dayofyear distance  steps flights active_cals
##    <chr>       <chr> <dbl>   <dbl>     <dbl>    <dbl>  <dbl>   <dbl>       <dbl>
##  1 weekday     11/2…    11       4       332    0.930  1885.       0        57.8
##  2 weekday     11/2…    11       5       333    4.64   8953.      18       509. 
##  3 weekday     11/3…    11       6       334    6.05  11665       12       599. 
##  4 weekend     12/1…    12       7       335    6.80  12117        6       661. 
##  5 weekend     12/2…    12       1       336    4.61   8925.       1       527. 
##  6 weekday     12/3…    12       2       337    3.96   7205        2       550. 
##  7 weekday     12/4…    12       3       338    6.60  12483.       5       670. 
##  8 weekday     12/5…    12       4       339    4.91   9258.       6       557. 
##  9 weekday     12/6…    12       5       340    7.50  14208       13       997. 
## 10 weekday     12/7…    12       6       341    4.27   8269.       8       533. 
## # … with 574 more rows, and 1 more variable: weekday_cat <fct>
…
