16 Connections to STAT 113, STAT 213, and CS 140 | STAT 234: Data Science
…
#> Warning: package 'openintro' was built under R version 4.1.2
#> Loading required package: airports
#> Loading required package: cherryblossom
#> Loading required package: usdata
#> Warning: replacing previous import
#> 'lifecycle::last_warnings' by 'rlang::last_warnings' when
#> loading 'tibble'
#> Warning: replacing previous import
#> 'lifecycle::last_warnings' by 'rlang::last_warnings' when
#> loading 'pillar'
#> Warning: replacing previous import
#> 'lifecycle::last_warnings' by 'rlang::last_warnings' when
#> loading 'hms'
resume
#> # A tibble: 4,870 x 30
#>    job_ad_id job_city job_industry job_type job_fed_contrac…
#>        <dbl> <chr>    <chr>        <chr>               <dbl>
#>  1       384 Chicago  manufacturi… supervi…               NA
#>  2       384 Chicago  manufacturi… supervi…               NA
#>  3       384 Chicago  manufacturi… supervi…               NA
#>  4       384 Chicago  manufacturi… supervi…               NA
#>  5       385 Chicago  other_servi… secreta…                0
#>  6       386 Chicago  wholesale_a… sales_r…                0
#>  7       386 Chicago  wholesale_a… sales_r…                0
#>  8       385 Chicago  other_servi… secreta…                0
#>  9       386 Chicago  wholesale_a… sales_r…                0
#> 10       386 Chicago  wholesale_a… sales_r…                0
#> # … with 4,860 more rows, and 25 more variables:
#> #   job_equal_opp_employer <dbl>, job_ownership <chr>,
#> #   job_req_any <dbl>, job_req_communication <dbl>,
#> #   job_req_education <dbl>, job_req_min_experience <chr>,
#> #   job_req_computer <dbl>, job_req_organization <dbl>,
#> #   job_req_school <chr>, received_callback <dbl>,
#> #   firstname <chr>, race <chr>, gender <chr>,
#> #   years_college <int>, college_degree <dbl>,
#> #   honors <int>, worked_during_school <int>,
…
you should notice a lot of statistics that you are familiar with from STAT 213, including r.squared, adj.r.squared, sigma (the residual standard error), statistic (the overall F-statistic), AIC, and BIC.

augment()

augment() is my personal favourite of the three. The function returns a tibble that contains all of the variables used to fit the model appended with commonly used diagnostic statistics like the fitted values (.fitted), cook’s distance (.cooksd), .hat values for leverage, and residuals (.resid).

augment(coffee_mod)
#> # A tibble: 1,339 x 12
#>    total_cup_points species aroma flavor sweetness moisture
#>               <dbl> <chr>   <dbl>  <dbl>     <dbl>    <dbl>
#>  1             90.6 Arabica  8.67   8.83     10        0.12
#>  2             89.9 Arabica  8.75   8.67     10        0.12
#>  3             89.8 Arabica  8.42   8.5      10        0   
#>  4             89   Arabica  8.17   8.58     10        0.11
#>  5             88.8 Arabica  8.25   8.5      10        0.12
#>  6             88.8 Arabica  8.58   8.42     10        0.11
#>  7             88.8 Arabica  8.42   8.5      10        0.11
#>  8             88.7 Arabica  8.25   8.33      9.33     0.03
#>  9             88.4 Arabica  8.67   8.67      9.33     0.03
#> 10             88.2 Arabica  8.08   8.58     10        0.1 
#> # … with 1,329 more rows, and 6 more variables:
#> #   .fitted <dbl>, .resid <dbl>, .hat <dbl>, .sigma <dbl>,
#> #   .cooksd <dbl>, .std.resid <dbl>
…
augment_df |> filter(.hat > 0.2)
#> # A tibble: 2 x 12
#>   total_cup_points species aroma flavor sweetness moisture
#>              <dbl> <chr>   <dbl>  <dbl>     <dbl>    <dbl>
#> 1             59.8 Arabica   7.5   6.67      1.33     0.1 
#> 2              0   Arabica   0     0         0        0.12
#> # … with 6 more variables: .fitted <dbl>, .resid <dbl>,
#> #   .hat <dbl>, .sigma <dbl>, .cooksd <dbl>,
#> #   .std.resid <dbl>

or observations that are outliers:

augment_df |> filter(.std.resid > 3 | .std.resid < -3)
#> # A tibble: 25 x 12
#>    total_cup_points species aroma flavor sweetness moisture
#>               <dbl> <chr>   <dbl>  <dbl>     <dbl>    <dbl>
#>  1             82.8 Arabica  8.08   8.17     10        0.12
#>  2             82.4 Arabica  5.08   7.75     10        0.11
#>  3             82.3 Arabica  7.75   8.08      6.67     0.11
#>  4             80.7 Arabica  7.67   7.5       6.67     0   
#>  5             80   Arabica  7.58   7.75     10        0   
#>  6             79.9 Arabica  7.83   7.67     10        0   
#>  7             79.2 Arabica  7.17   7.42      6.67     0.1 
#>  8             78.6 Arabica  7.92   7.58     10        0.1 
#>  9             78.3 Arabica  7.17   6.08     10        0.11
#> 10             77.6 Arabica  7.58   7.67      6        0.12
#> # … with 15 more rows, and 6 more variables: .fitted <dbl>,
#> #   .resid <dbl>, .hat <dbl>, .sigma <dbl>, .cooksd <dbl>,
#> #   .std.resid <dbl>
…
#> 12     1 "Verra… 0.5   1.1   4-0         2     1     1     0
#> 13    25 "Liber… 0.379 1.16  25-19      66    19    25     8
#> 14     9 "Burke… 0.308 0.885 6-4        13     4     4     1
#> 15    23 "Conno… 0.286 0.661 6-0         7     2     2     0
#> 16    18 "Feder… 0.275 0.733 25-7       40    13    11     3
#> 17    22 "Court… 0.256 0.63  20-10      39     7    10     1
#> 18    24 "Colan… 0.095 0.295 15-3       21     6     2     0
#> 19     3 "Haun,… 0     0.5   11-0        2     1     0     0
#> 20    36 "Boldu… 0     0     2-0         2     0     0     0
#> # … with 15 more variables: 3B <int>, HR <int>, RBI <int>,
#> #   TB <int>, SLG% <dbl>, BB <int>, HBP <int>, SO <int>,
#> #   GDP <int>, OB% <dbl>, SF <int>, SH <int>, SB-ATT <chr>,
#> #   wOBA <dbl>, url_name <chr>
get_hitting_data(url_name = "https://clarksonathletics.com/sports/baseball/stats/2022")
#> # A tibble: 26 x 24
#>      `#` Player    AVG   OPS `GP-GS`    AB     R     H  `2B`
#>    <int> <chr>   <dbl> <dbl> <chr>   <int> <int> <int> <int>
#>  1    32 "Wilso… 0.349 0.933 31-30     126    32    44    10
#>  2     9 "Doyle… 0.33  1.07  31-31     103    38    34     7
#>  3    26 "Nee, … 0.326 0.958 25-24      86    18    28     8
#>  4    14 "Broui… 0.323 0.941 30-29     127    21    41     8
#>  5     2 "Tito,… 0.278 0.615 29-28      90    19    25     0
#>  6    23 "Bianc… 0.278 0.806 28-27      90    11    25     6
#>  7     3 "Lockl… 0.133 0.46  26-21      45     7     6     1
#>  8    28 "Canto… 0.833 1.83  4-0         6     3     5     1
#>  9    20 "Cuyle… 0.5   1     2-0         2     1     1     0
#> 10    16 "Price… 0.4   1.1   4-1         5     2     2     1
#> # … with 16 more rows, and 15 more variables: 3B <int>,
#> #   HR <int>, RBI <int>, TB <int>, SLG% <dbl>, BB <int>,
#> #   HBP <int>, SO <int>, GDP <int>, OB% <dbl>, SF <int>,
#> #   SH <int>, SB-ATT <chr>, wOBA <dbl>, url_name <chr>
get_hitting_data(url_name = "https://uofrathletics.com/sports/baseball/stats/2022")
#> # A tibble: 25 x 24
#>      `#` Player    AVG   OPS `GP-GS`    AB     R     H  `2B`
#>    <int> <chr>   <dbl> <dbl> <chr>   <int> <int> <int> <int>
#>  1    22 "Piont… 0.39  1.05  35-31     100    28    39     9
#>  2    10 "Sy, H… 0.357 1.01  40-40     140    32    50     5
#>  3    15 "Whitl… 0.347 1.02  41-41     144    44    50     7
#>  4    16 "Leade… 0.333 0.899 38-35     123    25    41     6
#>  5     7 "Reed,… 0.333 0.877 33-32     111    27    37     7
#>  6    20 "Rende… 0.306 0.939 42-42     147    33    45     9
#>  7     3 "McKin… 0.296 0.786 43-42     135    31    40     8
#>  8     1 "Cappe… 0.281 0.845 37-35     114    21    32     7
#>  9     6 "Karpi… 1     2     20-0        1     0     1     0
#> 10    33 "Const… 0.409 1.07  10-5       22     6     9     1
#> # … with 15 more rows, and 15 more variables: 3B <int>,
#> #   HR <int>, RBI <int>, TB <int>, SLG% <dbl>, BB <int>,
#> #   HBP <int>, SO <int>, GDP <int>, OB% <dbl>, SF <int>,
#> #   SH <int>, SB-ATT <chr>, wOBA <dbl>, url_name <chr>
…
#> 13    25 "Liber… 0.379 1.16  25-19      66    19    25     8
#> 14     9 "Burke… 0.308 0.885 6-4        13     4     4     1
#> 15    23 "Conno… 0.286 0.661 6-0         7     2     2     0
#> 16    18 "Feder… 0.275 0.733 25-7       40    13    11     3
#> 17    22 "Court… 0.256 0.63  20-10      39     7    10     1
#> 18    24 "Colan… 0.095 0.295 15-3       21     6     2     0
#> 19     3 "Haun,… 0     0.5   11-0        2     1     0     0
#> 20    36 "Boldu… 0     0     2-0         2     0     0     0
#> # … with 15 more variables: 3B <int>, HR <int>, RBI <int>,
#> #   TB <int>, SLG% <dbl>, BB <int>, HBP <int>, SO <int>,
#> #   GDP <int>, OB% <dbl>, SF <int>, SH <int>, SB-ATT <chr>,
#> #   wOBA <dbl>, url_name <chr>
#> 
#> [[2]]
#> # A tibble: 26 x 24
#>      `#` Player    AVG   OPS `GP-GS`    AB     R     H  `2B`
#>    <int> <chr>   <dbl> <dbl> <chr>   <int> <int> <int> <int>
#>  1    32 "Wilso… 0.349 0.933 31-30     126    32    44    10
#>  2     9 "Doyle… 0.33  1.07  31-31     103    38    34     7
#>  3    26 "Nee, … 0.326 0.958 25-24      86    18    28     8
#>  4    14 "Broui… 0.323 0.941 30-29     127    21    41     8
#>  5     2 "Tito,… 0.278 0.615 29-28      90    19    25     0
#>  6    23 "Bianc… 0.278 0.806 28-27      90    11    25     6
#>  7     3 "Lockl… 0.133 0.46  26-21      45     7     6     1
#>  8    28 "Canto… 0.833 1.83  4-0         6     3     5     1
#>  9    20 "Cuyle… 0.5   1     2-0         2     1     1     0
#> 10    16 "Price… 0.4   1.1   4-1         5     2     2     1
#> # … with 16 more rows, and 15 more variables: 3B <int>,
#> #   HR <int>, RBI <int>, TB <int>, SLG% <dbl>, BB <int>,
#> #   HBP <int>, SO <int>, GDP <int>, OB% <dbl>, SF <int>,
#> #   SH <int>, SB-ATT <chr>, wOBA <dbl>, url_name <chr>
#> 
#> [[3]]
#> # A tibble: 25 x 24
#>      `#` Player    AVG   OPS `GP-GS`    AB     R     H  `2B`
#>    <int> <chr>   <dbl> <dbl> <chr>   <int> <int> <int> <int>
#>  1    22 "Piont… 0.39  1.05  35-31     100    28    39     9
#>  2    10 "Sy, H… 0.357 1.01  40-40     140    32    50     5
#>  3    15 "Whitl… 0.347 1.02  41-41     144    44    50     7
#>  4    16 "Leade… 0.333 0.899 38-35     123    25    41     6
#>  5     7 "Reed,… 0.333 0.877 33-32     111    27    37     7
#>  6    20 "Rende… 0.306 0.939 42-42     147    33    45     9
#>  7     3 "McKin… 0.296 0.786 43-42     135    31    40     8
#>  8     1 "Cappe… 0.281 0.845 37-35     114    21    32     7
#>  9     6 "Karpi… 1     2     20-0        1     0     1     0
#> 10    33 "Const… 0.409 1.07  10-5       22     6     9     1
#> # … with 15 more rows, and 15 more variables: 3B <int>,
#> #   HR <int>, RBI <int>, TB <int>, SLG% <dbl>, BB <int>,
#> #   HBP <int>, SO <int>, GDP <int>, OB% <dbl>, SF <int>,
#> #   SH <int>, SB-ATT <chr>, wOBA <dbl>, url_name <chr>
…
#> 12     1 "Nauta… 0.296 0.775 31-31     108    35    32     4
#> 13    25 "Laubs… 0.281 0.926 16-4       32     7     9     0
#> 14     5 "Feene… 0.254 0.755 29-14      59    13    15     1
#> 15    18 "McDon… 0.238 0.571 9-7        21     4     5     0
#> 16    26 "Cifon… 0.205 0.648 17-8       39     8     8     2
#> 17    31 "Guidi… 0.182 0.582 4-4        11     3     2     0
#> 18    35 "MacDo… 0.125 0.347 7-1         8     1     1     0
#> 19    28 "Ruffn… 0     0     1-0         1     0     0     0
#> # … with 15 more variables: 3B <int>, HR <int>, RBI <int>,
#> #   TB <int>, SLG% <dbl>, BB <int>, HBP <int>, SO <int>,
#> #   GDP <int>, OB% <dbl>, SF <int>, SH <int>, SB-ATT <chr>,
#> #   wOBA <dbl>, url_name <chr>
#> 
#> [[6]]
#> # A tibble: 21 x 24
#>      `#` Player    AVG   OPS `GP-GS`    AB     R     H  `2B`
#>    <int> <chr>   <dbl> <dbl> <chr>   <int> <int> <int> <int>
#>  1    15 "Hornu… 0.46  1.30  37-37     150    54    69    17
#>  2     6 "Bourq… 0.391 0.986 36-35     128    29    50     7
#>  3    21 "O'Nei… 0.366 0.862 36-35     134    32    49     3
#>  4     4 "Torra… 0.289 0.803 31-24      97    17    28     6
#>  5    23 "Mello… 0.287 0.811 32-28     108    14    31     5
#>  6    10 "Melil… 0.281 0.727 37-34     121    33    34     2
#>  7    24 "Snyde… 0.262 0.672 33-30     103    23    27     5
#>  8     2 "Pedem… 0.4   0.9   17-4       20     9     8     0
#>  9    17 "Pelc,… 0.333 1.17  11-1       12     6     4     1
#> 10    25 "Korne… 0.3   0.867 23-8       30     6     9     2
#> # … with 11 more rows, and 15 more variables: 3B <int>,
#> #   HR <int>, RBI <int>, TB <int>, SLG% <dbl>, BB <int>,
#> #   HBP <int>, SO <int>, GDP <int>, OB% <dbl>, SF <int>,
#> #   SH <int>, SB-ATT <chr>, wOBA <dbl>, url_name <chr>
#> 
#> [[7]]
#> # A tibble: 22 x 24
#>      `#` Player    AVG   OPS `GP-GS`    AB     R     H  `2B`
#>    <int> <chr>   <dbl> <dbl> <chr>   <int> <int> <int> <int>
#>  1    33 "Lives… 0.365 1.01  27-27     104    25    38     8
#>  2    14 "Marin… 0.355 0.938 32-32     124    27    44    11
#>  3    15 "Saia,… 0.337 1.02  29-27      92    24    31     6
#>  4     8 "Defay… 0.294 0.994 32-32     109    31    32     7
#>  5    23 "Moncu… 0.277 0.778 32-32     101    20    28     8
#>  6     2 "Krish… 0.271 0.718 28-25      85    14    23     2
#>  7    44 "Curci… 0.267 0.718 32-32     116    22    31     7
#>  8    40 "Raine… 0.253 0.673 30-30      99    18    25     7
#>  9    38 "Scarp… 0.6   1.2   5-1         5     1     3     0
#> 10     1 "Hicks… 0.364 0.876 20-10      33    10    12     0
#> # … with 12 more rows, and 15 more variables: 3B <int>,
#> #   HR <int>, RBI <int>, TB <int>, SLG% <dbl>, BB <int>,
#> #   HBP <int>, SO <int>, GDP <int>, OB% <dbl>, SF <int>,
#> #   SH <int>, SB-ATT <chr>, wOBA <dbl>, url_name <chr>
#> 
#> [[8]]
#> # A tibble: 21 x 24
#>      `#` Player    AVG   OPS `GP-GS`    AB     R     H  `2B`
#>    <int> <chr>   <dbl> <dbl> <chr>   <int> <int> <int> <int>
#>  1    55 "Mentz… 0.366 1.00  34-34     112    27    41     9
#>  2     9 "Paris… 0.311 0.773 32-32     119    19    37     8
#>  3    32 "DiNan… 0.303 0.753 31-30     109    19    33     5
#>  4    29 "Straz… 0.299 0.807 27-24      87    18    26     3
#>  5    15 "Santo… 0.298 0.923 30-28      94    18    28     5
#>  6     5 "Cowle… 0.276 0.757 29-27      87    17    24     7
#>  7     1 "Davis… 0.275 0.65  29-22      69     7    19     2
#>  8     6 "Ruzzo… 0.476 1.13  13-5       21     5    10     1
#>  9    13 "Nash,… 0.435 1.20  15-12      46    13    20     3
#> 10    39 "Zieno… 0.333 0.666 7-1         9     0     3     0
#> # … with 11 more rows, and 15 more variables: 3B <int>,
#> #   HR <int>, RBI <int>, TB <int>, SLG% <dbl>, BB <int>,
#> #   HBP <int>, SO <int>, GDP <int>, OB% <dbl>, SF <int>,
#> #   SH <int>, SB-ATT <chr>, wOBA <dbl>, url_name <chr>
…
#> 10     7 "Hanna… 0.292 0.778 17-13      48    12    14     1
#> 11    26 "O'Too… 0.256 0.683 21-12      39     7    10     0
#> 12    16 "Kurla… 0.25  0.526 9-8        28     1     7     0
#> 13    21 "Famul… 0.241 0.574 14-10      29     4     7     0
#> 14     5 "Rybic… 0.19  0.499 23-18      63     8    12     3
#> 15    18 "Hubbe… 0.182 0.572 9-6        22     3     4     1
#> 16    13 "Lynch… 0.148 0.435 11-6       27     3     4     1
#> 17    22 "Rober… 0.139 0.562 18-10      36     7     5     0
#> # … with 15 more variables: 3B <int>, HR <int>, RBI <int>,
#> #   TB <int>, SLG% <dbl>, BB <int>, HBP <int>, SO <int>,
#> #   GDP <int>, OB% <dbl>, SF <int>, SH <int>, SB-ATT <chr>,
#> #   wOBA <dbl>, url_name <chr>
#> 
#> [[10]]
#> # A tibble: 25 x 24
#>      `#` Player    AVG   OPS `GP-GS`    AB     R     H  `2B`
#>    <int> <chr>   <dbl> <dbl> <chr>   <int> <int> <int> <int>
#>  1    23 "Kanel… 0.336 1.07  35-35     128    35    43    13
#>  2    13 "Lapek… 0.333 0.865 34-33     132    28    44    13
#>  3     5 "Reyna… 0.319 0.77  27-19      72    13    23     1
#>  4    35 "Murra… 0.313 0.822 30-19      83    11    26     4
#>  5    28 "Talwa… 0.312 1.06  30-25      77    14    24     6
#>  6     9 "Mills… 0.299 0.911 33-32     127    30    38     8
#>  7     3 "Warre… 0.275 0.744 31-29     102    21    28     3
#>  8    25 "Green… 0.262 0.976 28-21      61    18    16     4
#>  9     8 "Brins… 0.25  0.765 29-19      52     6    13     5
#> 10     1 "Herri… 0.22  0.59  31-15      50     5    11     1
#> # … with 15 more rows, and 15 more variables: 3B <int>,
#> #   HR <int>, RBI <int>, TB <int>, SLG% <dbl>, BB <int>,
#> #   HBP <int>, SO <int>, GDP <int>, OB% <dbl>, SF <int>,
#> #   SH <int>, SB-ATT <chr>, wOBA <dbl>, url_name <chr>

Scraping and performing the wOBA calculation will take a few seconds. The output is a list of 10 tibbles. The bind_rows() function that we used to stack rows of different data frames or tibbles can also be used to stack rows of data frames or tibbles given in a list. We apply the function to the scraped data and then add the name of the school to the data frame with a left_join():

hitting_ll <- hitting_list |> bind_rows() |>
  left_join(school_df, by = c("url_name" = "hitting_web_url"))
hitting_ll
#> # A tibble: 213 x 25
#>      `#` Player    AVG   OPS `GP-GS`    AB     R     H  `2B`
#>    <int> <chr>   <dbl> <dbl> <chr>   <int> <int> <int> <int>
#>  1     6 "Clark… 0.367 1.02  29-19      79    24    29     5
#>  2    19 "Delan… 0.33  0.817 34-34     115    18    38     5
#>  3    13 "Butle… 0.325 1.08  35-35     126    31    41     9
#>  4    30 "Watso… 0.318 0.853 35-33     110    29    35     6
#>  5     5 "Desja… 0.284 0.741 28-20      67    23    19     1
#>  6    20 "Court… 0.281 0.646 27-17      64     6    18     2
#>  7    37 "Goret… 0.268 0.771 32-32      97    18    26     6
#>  8    11 "Circe… 0.252 1.00  35-33     111    27    28     9
#>  9     8 "Forgi… 0.244 0.799 27-27      86    22    21     4
#> 10    41 "Comer… 0.222 0.582 31-21      72    16    16     0
#> # … with 203 more rows, and 16 more variables: 3B <int>,
#> #   HR <int>, RBI <int>, TB <int>, SLG% <dbl>, BB <int>,
#> #   HBP <int>, SO <int>, GDP <int>, OB% <dbl>, SF <int>,
#> #   SH <int>, SB-ATT <chr>, wOBA <dbl>, url_name <chr>,
#> #   school_name <chr>

With this data set, we can now do things like figure out the top 3 hitters from each team, according to the wOBA metric:

hitting_ll |> group_by(school_name) |>
  arrange(desc(wOBA)) |>
  slice(1:3) |>
  select(Player, school_name, wOBA)
#> # A tibble: 30 x 3
#> # Groups:   school_name [10]
#>    Player                                  school_name  wOBA
#>    <chr>                                   <chr>       <dbl>
#>  1 "Toby, Jared\r\n                      … Bard        0.488
#>  2 "Dumper, Sam\r\n                      … Bard        0.475
#>  3 "Myers, Jordan\r\n                    … Bard        0.431
#>  4 "Cantor, Danny\r\n                    … Clarkson    0.805
#>  5 "Price, Grant\r\n                     … Clarkson    0.475
#>  6 "Doyle, Caleb\r\n                     … Clarkson    0.473
#>  7 "Shirley, Buzz\r\n                    … Ithaca      0.524
#>  8 "Fabbo, Louis\r\n                     … Ithaca      0.465
#>  9 "Fabian, Matt\r\n                     … Ithaca      0.428
#> 10 "Blackall, Patrick \r\n               … RIT         0.399
#> # … with 20 more rows

or find the players on each team with the most at bats AB:

hitting_ll |> group_by(school_name) |>
  arrange(desc(AB)) |>
  slice(1:3) |>
  select(Player, school_name, AB)
#> # A tibble: 30 x 3
#> # Groups:   school_name [10]
#>    Player                                  school_name    AB
#>    <chr>                                   <chr>       <int>
#>  1 "Toby, Jared\r\n                      … Bard          107
#>  2 "Myers, Jordan\r\n                    … Bard          107
#>  3 "Luscher, Alex\r\n                    … Bard          101
#>  4 "Brouillette, Colby\r\n               … Clarkson      127
#>  5 "Wilson, Kent\r\n                     … Clarkson      126
#>  6 "Doyle, Caleb\r\n                     … Clarkson      103
#>  7 "Pedersen, Connor\r\n                 … Ithaca        207
#>  8 "Cutaia, Nicholas\r\n                 … Ithaca        180
#>  9 "Merod, Gil\r\n                       … Ithaca        169
#> 10 "Reilly, Chris\r\n                    … RIT           152
#> # … with 20 more rows
…
