Chapter 8 Factors with forcats | STAT 234: Data Science
…
8.1.2 Collapsing Many Levels Into Fewer Levels with fct_collapse()

Sometimes, you might want to collapse the levels of two or more factors into a single level. With the Pokemon data set, there isn’t an example where this really makes sense, but, in the exercises, you’ll see a good use for this function with the social survey data set. For practice, we can collapse the Ice and Dark type Pokemon into a new level called Coolest and we can collapse the Poison, Fighting, and Fire type Pokemon into a new level called Least_Cool.

pokemon_long <- pokemon_df %>% pivot_longer(c(`Type 1`, `Type 2`),
                            names_to = "Number",
                            values_to = "Type")
pokemon_long %>%
  mutate(new_type = fct_collapse(Type, Coolest = c("Ice", "Dark"),
                                 Least_Cool = c("Fire", "Fighting", "Poison"))) %>%
  select(new_type, Type, everything())

## # A tibble: 1,894 x 22
##    new_type  Type     `#` Name    Total    HP Attack Defense `Sp. Atk` `Sp. Def`
##    <fct>     <chr>  <dbl> <chr>   <dbl> <dbl>  <dbl>   <dbl>     <dbl>     <dbl>
##  1 Grass     Grass      1 Bulbas…   318    45     49      49        65        65
##  2 Least_Co… Poison     1 Bulbas…   318    45     49      49        65        65
##  3 Grass     Grass      2 Ivysaur   405    60     62      63        80        80
##  4 Least_Co… Poison     2 Ivysaur   405    60     62      63        80        80
##  5 Grass     Grass      3 Venusa…   525    80     82      83       100       100
##  6 Least_Co… Poison     3 Venusa…   525    80     82      83       100       100
##  7 Grass     Grass      3 Venusa…   525    80     82      83       100       100
##  8 Least_Co… Poison     3 Venusa…   525    80     82      83       100       100
##  9 Least_Co… Fire       4 Charma…   309    39     52      43        60        50
## 10 <NA>      <NA>       4 Charma…   309    39     52      43        60        50
## # … with 1,884 more rows, and 12 more variables: Speed <dbl>, Generation <dbl>,
## #   Legendary <lgl>, id <chr>, identifier <chr>, height <dbl>, weight <dbl>,
## #   base_experience <dbl>, order <dbl>, is_default <dbl>, Generation_cat <fct>,
## #   Number <chr>
…
