Chapter 2 Getting Started with R and R Studio | STAT 234: Data Science
…
read_csv("data/alcohol.csv")

Note that we do not need the full file extension if we have the data set in an R project.

Did something show up in your console window? If so, great! If not, make sure that the data set is in the data folder and that you have an R project set up.

We would like to name our data set something so that we could easily reference it later, so name your data set using the <- operator, as in

alcohol_data <- read_csv("data/alcohol.csv")

You can name your data set whatever you want to (with a few restrictions). I’ve named it alcohol_data. Now, if you run the line of code above where you name the data set, and run alcohol_data, you should see the data set appear:

alcohol_data

## # A tibble: 193 x 5
##    country      beer_servings spirit_servings wine_servings total_litres_of_pur…
##    <chr>                <dbl>           <dbl>         <dbl>                <dbl>
##  1 Afghanistan              0               0             0                  0  
##  2 Albania                 89             132            54                  4.9
##  3 Algeria                 25               0            14                  0.7
##  4 Andorra                245             138           312                 12.4
##  5 Angola                 217              57            45                  5.9
##  6 Antigua & B…           102             128            45                  4.9
##  7 Argentina              193              25           221                  8.3
##  8 Armenia                 21             179            11                  3.8
##  9 Australia              261              72           212                 10.4
## 10 Austria                279              75           191                  9.7
## # … with 183 more rows
…
The x-axis corresponds to beer servings while the y-axis corresponds to wine servings. A reference line is given so with countries above the line consuming more wine than beer. We will get into how to make a plot like this later: for now, copy the code chunk and change the labeled point so that it corresponds to a country that interests you (other than Denmark).
We might be able to better answer the original question numerically by computing the wine to beer ratio for each country and then ordering from the largest ratio to the smallest ratio:

alcohol_data %>%
  mutate(wbratio = wine_servings / beer_servings) %>%
  arrange(desc(wbratio)) %>%
  select(country, beer_servings, wine_servings, wbratio)

## # A tibble: 193 x 4
##    country             beer_servings wine_servings wbratio
##    <chr>                       <dbl>         <dbl>   <dbl>
##  1 Cook Islands                    0            74  Inf   
##  2 Qatar                           1             7    7   
##  3 Montenegro                     31           128    4.13
##  4 Timor-Leste                     1             4    4   
##  5 Syria                           5            16    3.2 
##  6 France                        127           370    2.91
##  7 Georgia                        52           149    2.87
##  8 Italy                          85           237    2.79
##  9 Equatorial Guinea              92           233    2.53
## 10 Sao Tome & Principe            56           140    2.5 
## # … with 183 more rows
…
