7 R Basics | STAT 234: Data Science
…
Use dplyr functions and the %in% operator to create the new weekend_ind variable. You can use the following code chunk to help with what %in% does:

1 %in% c(1, 2, 3, 4)
#> [1] TRUE
2 %in% c(1, 2, 3, 4)
#> [1] TRUE

2 %in% c(3, 4, 5, 6)
#> [1] FALSE

fitness_df %>%
  mutate(weekend_ind = case_when(weekday %in% vecweekend ~ "weekend",
                                 weekday %in% vecweekday ~ "weekday")) %>%
  select(weekend_ind, everything())
#> # A tibble: 993 x 11
#>    weekend_ind Start      active_cals distance flights
#>    <chr>       <date>           <dbl>    <dbl>   <dbl>
#>  1 weekday     2018-11-28        57.8    0.930       0
#>  2 weekday     2018-11-29       509.     4.64       18
#>  3 weekday     2018-11-30       599.     6.05       12
#>  4 weekend     2018-12-01       661.     6.80        6
#>  5 weekend     2018-12-02       527.     4.61        1
#>  6 weekday     2018-12-03       550.     3.96        2
#>  7 weekday     2018-12-04       670.     6.60        5
#>  8 weekday     2018-12-05       557.     4.91        6
#>  9 weekday     2018-12-06       997.     7.50       13
#> 10 weekday     2018-12-07       533.     4.27        8
#> # … with 983 more rows, and 6 more variables: steps <dbl>,
#> #   month <dbl>, weekday <dbl>, dayofyear <dbl>,
#> #   stepgoal <dbl>, weekday_cat <fct>

## can also use if_else, which is actually a little simpler in this case:
fitness_df %>% mutate(weekend_ind = if_else(weekday %in% vecweekend,
  true = "weekend", false = "weekday")) %>%
  select(weekend_ind, everything())
#> # A tibble: 993 x 11
#>    weekend_ind Start      active_cals distance flights
#>    <chr>       <date>           <dbl>    <dbl>   <dbl>
#>  1 weekday     2018-11-28        57.8    0.930       0
#>  2 weekday     2018-11-29       509.     4.64       18
#>  3 weekday     2018-11-30       599.     6.05       12
#>  4 weekend     2018-12-01       661.     6.80        6
#>  5 weekend     2018-12-02       527.     4.61        1
#>  6 weekday     2018-12-03       550.     3.96        2
#>  7 weekday     2018-12-04       670.     6.60        5
#>  8 weekday     2018-12-05       557.     4.91        6
#>  9 weekday     2018-12-06       997.     7.50       13
#> 10 weekday     2018-12-07       533.     4.27        8
#> # … with 983 more rows, and 6 more variables: steps <dbl>,
#> #   month <dbl>, weekday <dbl>, dayofyear <dbl>,
#> #   stepgoal <dbl>, weekday_cat <fct>
…
