13 Strings with stringr | STAT 234: Data Science
…
Look carefully between rblack2 and rblack3: what’s the difference? In rblack2, there’s quotes surrounding each line while in rblack3, there’s quotes surrounding each word.

We can use the unlist() function to convert the list into a regular vector:

rblack4 <- unlist(rblack3)
rblack4

What would happen if we tried to count the number of times Rebecca Black says Friday from the words below? Let’s try and see!

rblack_df <- tibble(words = rblack4)
rblack_df %>% group_by(words) %>%
  summarise(word_count = n()) %>%
  arrange(desc(word_count))

## # A tibble: 126 x 2
##    words   word_count
##    <chr>        <int>
##  1 the             20
##  2 Friday          17
##  3 to              15
##  4 weekend         13
##  5 forward         12
##  6 Gotta           10
##  7 on              10
##  8 down             9
##  9 Friday,          9
## 10 fun,             9
## # … with 116 more rows
…
rblack6 <- str_to_lower(rblack5)
rblack6

Finally, we might want to get rid of “non-interesting” words, commonly known as “stop words.” These are words like “the,” “on,” “a,” “I,” etc. that don’t really provide meaning about the song. The tidytext package has a data set that has a list of stop words prepackaged. Install the package, load the tidytext library, and examine the stop words with:

##install.packages("tidytext")
library(tidytext)
stop_words

Next, let’s make the Friday words into a tibble with the tibble() function:

rblack_df <- tibble(words = rblack6)
rblack_df

## # A tibble: 360 x 1
##    words              
##    <chr>              
##  1 oo-ooh-ooh         
##  2 hoo                
##  3 yeah               
##  4 yeah               
##  5 (yeah              
##  6 ah-ah-ah-ah-ah-ark)
##  7 yeah               
##  8 yeah               
##  9 yeah-ah-ah         
## 10 yeah-ah-ah         
## # … with 350 more rows

And we can now use the anti_join() function to get rid of the stop words in the Rebecca Black data set.

rblack_small <- anti_join(rblack_df, stop_words,
                          by = c("words" = "word"))
rblack_small

## # A tibble: 208 x 1
##    words              
##    <chr>              
##  1 oo-ooh-ooh         
##  2 hoo                
##  3 yeah               
##  4 yeah               
##  5 (yeah              
##  6 ah-ah-ah-ah-ah-ark)
##  7 yeah               
##  8 yeah               
##  9 yeah-ah-ah         
## 10 yeah-ah-ah         
## # … with 198 more rows

We see that 98 words were dropped from the data set, but that some words weren’t picked up (like yeah-ah-ah). We will leave these for now, but, we could remove them with filter(words != "yeah-ah-ah") Finally, we can get some counts of words in the song Friday that aren’t “stop words.”

rblack_small %>% group_by(words) %>%
  summarise(word_count = n()) %>%
  arrange(desc(word_count))

## # A tibble: 60 x 2
##    words       word_count
##    <chr>            <int>
##  1 friday              26
##  2 fun                 19
##  3 weekend             17
##  4 partyin'            16
##  5 gotta               13
##  6 forward             12
##  7 lookin'             12
##  8 everybody's          9
##  9 (yeah)               8
## 10 yeah                 7
## # … with 50 more rows
…
