Chapter 5 Tidying with tidyr | STAT 234: Data Science
…
And we’re stuck. It’s certainly not impossible to make the graph with the data in its current form (keep adding geom_point() and re-specifying the aesthetics, then manually specify colours, then manually specify a legend), but it’s definitely a huge pain.

This is where pivot_longer() can help! https://www.youtube.com/watch?v=8w3wmQAMoxQ

5.3.1 pivot_longer() to Gather Columns

pivot_longer() “pivots” the data set so that is has more rows (hence the “longer”) by collapsing multiple columns into two columns. One new column is a “key” column, which is the new variable containing the old data set’s column names. The second new column is a “value” column, which is the new variable containing the old data set’s values for each of the old data set’s column names. It’s easier to see this with an example. We know from our plotting exercise above that we’d really like a candidate variable to colour by and a poll_percent variable for the y-axis of our plot. So, we can use pivot_longer() to make these two columns:

polls_clean %>%
  pivot_longer(cols = c(Clinton_D, Trump_R, Johnson_L, Stein_G),
               names_to = "candidate", values_to = "poll_percent")

## # A tibble: 28 x 8
##    Poll         Start End   Sample_size Sample_type   MoE candidate poll_percent
##    <chr>        <chr> <chr> <chr>       <chr>       <dbl> <chr>            <dbl>
##  1 Monmouth     7/14  7/16  688         LV            3.7 Clinton_D           45
##  2 Monmouth     7/14  7/16  688         LV            3.7 Trump_R             43
##  3 Monmouth     7/14  7/16  688         LV            3.7 Johnson_L            5
##  4 Monmouth     7/14  7/16  688         LV            3.7 Stein_G              1
##  5 CNN/ORC      7/13  7/16  872         RV            3.5 Clinton_D           42
##  6 CNN/ORC      7/13  7/16  872         RV            3.5 Trump_R             37
##  7 CNN/ORC      7/13  7/16  872         RV            3.5 Johnson_L           13
##  8 CNN/ORC      7/13  7/16  872         RV            3.5 Stein_G              5
##  9 ABC News/Wa… 7/11  7/14  816         RV            4   Clinton_D           42
## 10 ABC News/Wa… 7/11  7/14  816         RV            4   Trump_R             38
## # … with 18 more rows
…
etc.

Let’s start with pivot_longer() to see if we can get year to be its own variable (We know that a year variable, which is what we want, will make more rows so pivot_longer() seems like a good place to start):

airlines %>%
  pivot_longer(c(3, 4, 5, 6, 7, 8), names_to = "type_year",
  values_to = "total_num") 

## # A tibble: 336 x 4
##    airline    avail_seat_km_per_week type_year                 total_num
##    <chr>                       <dbl> <chr>                         <dbl>
##  1 Aer Lingus              320906734 incidents 1985_1999               2
##  2 Aer Lingus              320906734 fatal_accidents 1985_1999         0
##  3 Aer Lingus              320906734 fatalities 1985_1999              0
##  4 Aer Lingus              320906734 incidents 2000_2014               0
##  5 Aer Lingus              320906734 fatal_accidents 2000_2014         0
##  6 Aer Lingus              320906734 fatalities 2000_2014              0
##  7 Aeroflot*              1197672318 incidents 1985_1999              76
##  8 Aeroflot*              1197672318 fatal_accidents 1985_1999        14
##  9 Aeroflot*              1197672318 fatalities 1985_1999            128
## 10 Aeroflot*              1197672318 incidents 2000_2014               6
## # … with 326 more rows

Instead of giving pivot_longer() names of variables, we gave it the column numbers instead. So c(3, 4, 5, 6, 7, 8) corresponds to the 3rd, 4th, …., 8th columns in the data set. That didn’t quite give us a year variable, but we should be excited to see an opportunity to take advantage of separate():

airlines %>% pivot_longer(c(3, 4, 5, 6, 7, 8), names_to = "type_year",
                          values_to = "total_num") %>%
  separate(type_year, into = c("type", "year"), sep = " ")

## # A tibble: 336 x 5
##    airline    avail_seat_km_per_week type            year      total_num
##    <chr>                       <dbl> <chr>           <chr>         <dbl>
##  1 Aer Lingus              320906734 incidents       1985_1999         2
##  2 Aer Lingus              320906734 fatal_accidents 1985_1999         0
##  3 Aer Lingus              320906734 fatalities      1985_1999         0
##  4 Aer Lingus              320906734 incidents       2000_2014         0
##  5 Aer Lingus              320906734 fatal_accidents 2000_2014         0
##  6 Aer Lingus              320906734 fatalities      2000_2014         0
##  7 Aeroflot*              1197672318 incidents       1985_1999        76
##  8 Aeroflot*              1197672318 fatal_accidents 1985_1999        14
##  9 Aeroflot*              1197672318 fatalities      1985_1999       128
## 10 Aeroflot*              1197672318 incidents       2000_2014         6
## # … with 326 more rows

Is this the format that we want the data set to be in? Depending on the task, it could be. But, we also might want each of the accident types to be its own variable. That is, we might want to collapse the data set to have a variable for incidents, a variable for fatal_accidents, and a variable for fatalities. If so, we want to add more columns to the data set, so we need to use pivot_wider().

## name the long data set
airlines_long <- airlines %>%
  pivot_longer(c(3, 4, 5, 6, 7, 8), names_to = "type_year",
               values_to = "total_num") %>%
  separate(type_year, into = c("type", "year"), sep = " ")

## use pivot_wider() to create variables for incidents, fatalities, and
## fatal_accidents:
airlines_long %>% pivot_wider(names_from = type,
                              values_from = total_num)

## # A tibble: 112 x 6
##    airline       avail_seat_km_per_… year   incidents fatal_accidents fatalities
##    <chr>                       <dbl> <chr>      <dbl>           <dbl>      <dbl>
##  1 Aer Lingus              320906734 1985_…         2               0          0
##  2 Aer Lingus              320906734 2000_…         0               0          0
##  3 Aeroflot*              1197672318 1985_…        76              14        128
##  4 Aeroflot*              1197672318 2000_…         6               1         88
##  5 Aerolineas A…           385803648 1985_…         6               0          0
##  6 Aerolineas A…           385803648 2000_…         1               0          0
##  7 Aeromexico*             596871813 1985_…         3               1         64
##  8 Aeromexico*             596871813 2000_…         5               0          0
##  9 Air Canada             1865253802 1985_…         2               0          0
## 10 Air Canada             1865253802 2000_…         2               0          0
## # … with 102 more rows
…
You’ll need to add something to your pivot_longer() function to convert the variable Year to numeric. We haven’t talked too much about variable types yet so, after your values_to = "Mortality" statement, add , names_transform = list(Year = as.numeric), making sure you have a second ) to close the pivot_longer() function.

5.6.5 Chapter Exercises S

* Use a function in tidyr to make the data tidy, and give your tidy data set a new name.

nfl_long <- nfl_df %>%
  pivot_longer(c(2, 3, 4, 5, 6, 7, 8, 9, 10, 11),
               names_to = "position", values_to = "salary")
nfl_long

## # A tibble: 8,000 x 3
##     year position            salary
##    <dbl> <chr>                <dbl>
##  1  2011 Cornerback        11265916
##  2  2011 Defensive Lineman 17818000
##  3  2011 Linebacker        16420000
##  4  2011 Offensive Lineman 15960000
##  5  2011 Quarterback       17228125
##  6  2011 Running Back      12955000
##  7  2011 Safety             8871428
##  8  2011 Special Teamer     4300000
##  9  2011 Tight End          8734375
## 10  2011 Wide Receiver     16250000
## # … with 7,990 more rows
…
